ISL/TP 2 - Contador de Módulos/circuits/vhdl/sync_counter/waves.vcd
$date
  Sat May 28 21:41:27 2016
$end
$version
  GHDL v0
$end
$timescale
  1 fs
$end
$var reg 1 ! mclk $end
$var reg 1 " mpren $end
$var reg 1 # mclrn $end
$scope module sync_counter_dut $end
$var reg 1 $ clk $end
$var reg 1 % pren $end
$var reg 1 & clrn $end
$var reg 1 ' ff_q0 $end
$var reg 1 ( ff_qn0 $end
$var reg 1 ) ff_q1 $end
$var reg 1 * ff_qn1 $end
$var reg 1 + ff_q2 $end
$var reg 1 , clearff $end
$var reg 1 - and1 $end
$var reg 8 . disp_7seg[7:0] $end
$var reg 4 / disp_7seg_bcd[3:0] $end
$scope module ff_jk0 $end
$var reg 1 0 clk $end
$var reg 1 1 pren $end
$var reg 1 2 clrn $end
$var reg 1 3 j $end
$var reg 1 4 k $end
$var reg 1 5 q $end
$var reg 1 6 qn $end
$var reg 1 7 tmp_q $end
$var reg 1 8 tmp_qn $end
$var reg 2 9 jk[1:0] $end
$upscope $end
$scope module ff_jk1 $end
$var reg 1 : clk $end
$var reg 1 ; pren $end
$var reg 1 < clrn $end
$var reg 1 = j $end
$var reg 1 > k $end
$var reg 1 ? q $end
$var reg 1 @ qn $end
$var reg 1 A tmp_q $end
$var reg 1 B tmp_qn $end
$var reg 2 C jk[1:0] $end
$upscope $end
$scope module ff_jk2 $end
$var reg 1 D clk $end
$var reg 1 E pren $end
$var reg 1 F clrn $end
$var reg 1 G j $end
$var reg 1 H k $end
$var reg 1 I q $end
$var reg 1 J qn $end
$var reg 1 K tmp_q $end
$var reg 1 L tmp_qn $end
$var reg 2 M jk[1:0] $end
$upscope $end
$scope module bcd_7seg_dec0 $end
$var reg 4 N bcd[3:0] $end
$var reg 8 O seven_segs[7:0] $end
$upscope $end
$upscope $end
$enddefinitions $end
#0
1!
1"
0#
1$
1%
0&
0'
1(
0)
1*
0+
0,
0-
b00000001 .
b0000 /
10
11
02
13
14
05
16
07
18
b11 9
1:
1;
0<
0=
0>
0?
1@
0A
1B
b00 C
1D
1E
0F
0G
0H
0I
1J
0K
1L
b00 M
b0000 N
b00000001 O
#5000000000000
1#
1&
1,
12
1<
1F
#10000000000000
0!
0$
00
0:
0D
#210000000000000
1!
1$
1'
0(
b01100111 .
b0001 /
10
15
06
17
08
1:
1=
1>
b11 C
1D
b0001 N
b01100111 O
#410000000000000
0!
0$
00
0:
0D
#610000000000000
1!
1$
0'
1(
1)
0*
b00010010 .
b0010 /
10
05
16
07
18
1:
0=
0>
1?
0@
1A
0B
b00 C
1D
b0010 N
b00010010 O
#810000000000000
0!
0$
00
0:
0D
#1010000000000000
1!
1$
1'
0(
1-
b01000010 .
b0011 /
10
15
06
17
08
1:
1=
1>
b11 C
1D
1G
1H
b11 M
b0011 N
b01000010 O
#1210000000000000
0!
0$
00
0:
0D
#1410000000000000
1!
1$
0'
1(
0)
1*
1+
0-
b01100100 .
b0100 /
10
05
16
07
18
1:
0=
0>
0?
1@
0A
1B
b00 C
1D
0G
0H
1I
0J
1K
0L
b00 M
b0100 N
b01100100 O
#1610000000000000
0!
0$
00
0:
0D
#1810000000000000
1!
1$
1'
0(
b01001000 .
b0101 /
10
15
06
17
08
1:
1=
1>
b11 C
1D
b0101 N
b01001000 O
#2010000000000000
0!
0$
00
0:
0D
#2210000000000000
1!
1$
0'
1(
0)
1*
0+
1,
b00000001 .
b0000 /
10
12
05
16
07
18
1:
1<
0=
0>
0?
1@
0A
1B
b00 C
1D
1F
0I
1J
0K
1L
b0000 N
b00000001 O
#2410000000000000
0!
0$
00
0:
0D
#2610000000000000
1!
1$
1'
0(
b01100111 .
b0001 /
10
15
06
17
08
1:
1=
1>
b11 C
1D
b0001 N
b01100111 O
#2810000000000000
0!
0$
00
0:
0D
#3010000000000000
1!
1$
0'
1(
1)
0*
b00010010 .
b0010 /
10
05
16
07
18
1:
0=
0>
1?
0@
1A
0B
b00 C
1D
b0010 N
b00010010 O
#3210000000000000
0!
0$
00
0:
0D
#3410000000000000
1!
1$
1'
0(
1-
b01000010 .
b0011 /
10
15
06
17
08
1:
1=
1>
b11 C
1D
1G
1H
b11 M
b0011 N
b01000010 O
#3610000000000000
0!
0$
00
0:
0D
#3810000000000000
1!
1$
0'
1(
0)
1*
1+
0-
b01100100 .
b0100 /
10
05
16
07
18
1:
0=
0>
0?
1@
0A
1B
b00 C
1D
0G
0H
1I
0J
1K
0L
b00 M
b0100 N
b01100100 O
#4010000000000000
0!
0$
00
0:
0D
#4210000000000000
1!
1$
1'
0(
b01001000 .
b0101 /
10
15
06
17
08
1:
1=
1>
b11 C
1D
b0101 N
b01001000 O
#4410000000000000
0!
0$
00
0:
0D
#4610000000000000
1!
1$
0'
1(
0)
1*
0+
1,
b00000001 .
b0000 /
10
12
05
16
07
18
1:
1<
0=
0>
0?
1@
0A
1B
b00 C
1D
1F
0I
1J
0K
1L
b0000 N
b00000001 O
#4810000000000000
0!
0$
00
0:
0D
#5010000000000000
1!
1$
1'
0(
b01100111 .
b0001 /
10
15
06
17
08
1:
1=
1>
b11 C
1D
b0001 N
b01100111 O
#5210000000000000
0!
0$
00
0:
0D
#5410000000000000
1!
1$
0'
1(
1)
0*
b00010010 .
b0010 /
10
05
16
07
18
1:
0=
0>
1?
0@
1A
0B
b00 C
1D
b0010 N
b00010010 O
#5610000000000000
0!
0$
00
0:
0D
#5810000000000000
1!
1$
1'
0(
1-
b01000010 .
b0011 /
10
15
06
17
08
1:
1=
1>
b11 C
1D
1G
1H
b11 M
b0011 N
b01000010 O
#6010000000000000
0!
0$
00
0:
0D
#6210000000000000
1!
1$
0'
1(
0)
1*
1+
0-
b01100100 .
b0100 /
10
05
16
07
18
1:
0=
0>
0?
1@
0A
1B
b00 C
1D
0G
0H
1I
0J
1K
0L
b00 M
b0100 N
b01100100 O
#6410000000000000
0!
0$
00
0:
0D
#6610000000000000
1!
1$
1'
0(
b01001000 .
b0101 /
10
15
06
17
08
1:
1=
1>
b11 C
1D
b0101 N
b01001000 O
#6810000000000000
0!
0$
00
0:
0D
#7010000000000000
1!
1$
0'
1(
0)
1*
0+
1,
b00000001 .
b0000 /
10
12
05
16
07
18
1:
1<
0=
0>
0?
1@
0A
1B
b00 C
1D
1F
0I
1J
0K
1L
b0000 N
b00000001 O
#7210000000000000
0!
0$
00
0:
0D
#7410000000000000
1!
1$
1'
0(
b01100111 .
b0001 /
10
15
06
17
08
1:
1=
1>
b11 C
1D
b0001 N
b01100111 O
#7610000000000000
0!
0$
00
0:
0D
#7810000000000000
1!
1$
0'
1(
1)
0*
b00010010 .
b0010 /
10
05
16
07
18
1:
0=
0>
1?
0@
1A
0B
b00 C
1D
b0010 N
b00010010 O
#8010000000000000
0!
0$
00
0:
0D
#8210000000000000
1!
1$
1'
0(
1-
b01000010 .
b0011 /
10
15
06
17
08
1:
1=
1>
b11 C
1D
1G
1H
b11 M
b0011 N
b01000010 O
#8410000000000000
0!
0$
00
0:
0D
#8610000000000000
1!
1$
0'
1(
0)
1*
1+
0-
b01100100 .
b0100 /
10
05
16
07
18
1:
0=
0>
0?
1@
0A
1B
b00 C
1D
0G
0H
1I
0J
1K
0L
b00 M
b0100 N
b01100100 O
#8810000000000000
0!
0$
00
0:
0D
#9010000000000000
1!
1$
1'
0(
b01001000 .
b0101 /
10
15
06
17
08
1:
1=
1>
b11 C
1D
b0101 N
b01001000 O
#9210000000000000
0!
0$
00
0:
0D
#9410000000000000
1!
1$
0'
1(
0)
1*
0+
1,
b00000001 .
b0000 /
10
12
05
16
07
18
1:
1<
0=
0>
0?
1@
0A
1B
b00 C
1D
1F
0I
1J
0K
1L
b0000 N
b00000001 O
#9610000000000000
0!
0$
00
0:
0D
#9810000000000000
1!
1$
1'
0(
b01100111 .
b0001 /
10
15
06
17
08
1:
1=
1>
b11 C
1D
b0001 N
b01100111 O
